[
	{
		"titre": "Verre d'eau",
		"source": "https://lasonotheque.org/detail-0003-verre.html",
		"audio": "./static/sonotheque/bruitages/verre-eau.mp3"
	},
	{
		"titre": "Feu de cheminée",
		"source": "https://lasonotheque.org/detail-0031-feu-de-cheminee.html",
		"audio": "./static/sonotheque/bruitages/feu-cheminee.mp3"
	},
	{
		"titre": "Clavier d'ordinateur",
		"source": "https://lasonotheque.org/detail-0229-clavier-d-ordinateur.html",
		"audio": "./static/sonotheque/bruitages/clavier-ordinateur.mp3"
	},
	{
		"titre": "Souris d'ordinateur",
		"source": "https://lasonotheque.org/detail-0029-souris-informatique.html",
		"audio": "./static/sonotheque/bruitages/souris-ordinateur.mp3"
	},
	{
		"titre": "Vent dans les herbes hautes",
		"source": "https://lasonotheque.org/detail-0908-vent-dans-les-herbes-hautes.html",
		"audio": "./static/sonotheque/bruitages/vent.mp3"
	},
	{
		"titre": "Fontaine",
		"source": "https://lasonotheque.org/detail-0913-fontaine-de-temple-japonais.html",
		"audio": "./static/sonotheque/bruitages/fontaine.mp3"
	},
	{
		"titre": "Appareil photo",
		"source": "https://lasonotheque.org/detail-0011-appareil-photo.html",
		"audio": "./static/sonotheque/bruitages/appareil-photo.mp3"
	},
	{
		"titre": "Sirène de la gendarmerie",
		"source": "https://lasonotheque.org/detail-0886-sirene-exterieure-gendarmerie.html",
		"audio": "./static/sonotheque/bruitages/sirene-gendarmerie.mp3"
	},
	{
		"titre": "Minuterie",
		"source": "https://lasonotheque.org/detail-0927-minuterie.html",
		"audio": "./static/sonotheque/bruitages/minuterie.mp3"
	},
	{
		"titre": "Appel téléphonique",
		"source": "https://lasonotheque.org/detail-0767-tonalite-telephonique-appel.html",
		"audio": "./static/sonotheque/bruitages/appel-telephonique.mp3"
	},
	{
		"titre": "Sonnerie de téléphone fixe",
		"source": "https://lasonotheque.org/detail-0063-telephone-fixe-sonnerie.html",
		"audio": "./static/sonotheque/bruitages/sonnerie-telephone-fixe.mp3"
	},
	{
		"titre": "Horloge",
		"source": "https://lasonotheque.org/detail-0007-horloge.html",
		"audio": "./static/sonotheque/bruitages/horloge.mp3"
	},
	{
		"titre": "Clés dans une serrure",
		"source": "https://lasonotheque.org/detail-0191-serrure.html",
		"audio": "./static/sonotheque/bruitages/serrure.mp3"
	},
	{
		"titre": "Toc toc",
		"source": "https://lasonotheque.org/detail-0320-toc-toc-sur-une-porte-vitree-2.html",
		"audio": "./static/sonotheque/bruitages/toc-toc-porte.mp3"
	},
	{
		"titre": "Coup de feu",
		"source": "https://lasonotheque.org/detail-0437-coup-de-feu-de-beretta-m12-9-mm.html",
		"audio": "./static/sonotheque/bruitages/coup-de-feu.mp3"
	},
	{
		"titre": "Pièces de monnaie",
		"source": "https://lasonotheque.org/detail-0194-pieces-de-monnaie-2.html",
		"audio": "./static/sonotheque/bruitages/monnaie.mp3"
	},
	{
		"titre": "Lecteur de cassettes",
		"source": "https://lasonotheque.org/detail-0571-lecteur-cassette-cassette.html",
		"audio": "./static/sonotheque/bruitages/lecteur-k7.mp3"
	},
	{
		"titre": "Épée",
		"source": "https://lasonotheque.org/detail-0129-epee.html",
		"audio": "./static/sonotheque/bruitages/epee.mp3"
	}
]
