[
	{
		"titre": "Voiture (démarrage et départ)",
		"source": "https://lasonotheque.org/detail-0189-voiture-demarrage-et-depart.html",
		"audio": "./static/sonotheque/transports/voiture-demarrage.mp3"
	},
	{
		"titre": "Voiture (portière)",
		"source": "https://lasonotheque.org/detail-0655-portiere-de-voiture.html",
		"audio": "./static/sonotheque/transports/voiture-portiere.mp3"
	},
	{
		"titre": "Voiture (fermeture centralisée)",
		"source": "https://lasonotheque.org/detail-0190-fermeture-centralisee.html",
		"audio": "./static/sonotheque/transports/voiture-fermeture.mp3"
	},
	{
		"titre": "Voiture (démarrage difficile)",
		"source": "https://lasonotheque.org/detail-0872-voiture-demarrage-difficile.html",
		"audio": "./static/sonotheque/transports/voiture-demarrage-difficile.mp3"
	},
	{
		"titre": "Voiture (klaxon)",
		"source": "https://lasonotheque.org/detail-0258-klaxon-de-voiture-recente-2.html",
		"audio": "./static/sonotheque/transports/voiture-klaxon.mp3"
	},
	{
		"titre": "Camion (sol humide)",
		"source": "https://lasonotheque.org/detail-0574-camion-passage-sur-sol-humide.html",
		"audio": "./static/sonotheque/transports/camion-sol-humide.mp3"
	},
	{
		"titre": "Vélo (sonnette)",
		"source": "https://lasonotheque.org/detail-0275-sonnette-de-velo-2.html",
		"audio": "./static/sonotheque/transports/velo-sonnette.mp3"
	},
	{
		"titre": "Hélicoptère (immobile)",
		"source": "https://lasonotheque.org/detail-0263-helicoptere-1.html",
		"audio": "./static/sonotheque/transports/helicoptere.mp3"
	},
	{
		"titre": "Hélicoptère (passage)",
		"source": "https://lasonotheque.org/detail-0113-helicoptere-passage.html",
		"audio": "./static/sonotheque/transports/helicoptere-passage.mp3"
	},
	{
		"titre": "Petit avion à hélices",
		"source": "https://lasonotheque.org/detail-0501-eloignement-petit-avion-a-helice.html",
		"audio": "./static/sonotheque/transports/avion.mp3"
	},
	{
		"titre": "Paquebot",
		"source": "https://lasonotheque.org/detail-0261-avertisseur-sonore-de-paquebot-1.html",
		"audio": "./static/sonotheque/transports/paquebot.mp3"
	},
	{
		"titre": "Train à vapeur (sifflement)",
		"source": "https://lasonotheque.org/detail-0228-sifflement-de-train-a-vapeur-2.html",
		"audio": "./static/sonotheque/transports/train-vapeur.mp3"
	},
	{
		"titre": "Train (passage)",
		"source": "https://lasonotheque.org/detail-0900-passage-un-train.html",
		"audio": "./static/sonotheque/transports/passage-train.mp3"
	},
	{
		"titre": "Véhicule futuriste",
		"source": "https://lasonotheque.org/detail-0338-passage-vehicule-futuriste-2.html",
		"audio": "./static/sonotheque/transports/vehicule-futuriste.mp3"
	}
]
